Beginning DHCPDISCOVER load test.
secs success failure  active | minimum current maximum | average slowest fastest
   0       0       0       0 |       0       1       0 |       0       0       0
   1       1       0       0 |       0       2       0 |       8       8       8
# delayd 58047msec
   2       3       0       0 |       0       4       0 |      29      64       8
# delayd 57476msec
   3       7       0       0 |       0       5       0 |      36      64       8
   4      12       0       0 |       0       8       0 |      51     145       8
   5      19       0       1 |       0      10       0 |      46     145       8
# delayd 40866msec
   6      30       0       0 |       0      16       0 |      46     192       8
   7      45       0       1 |       0      20       0 |      45     192       8
# delayd 55611msec
   8      65       0       1 |       0      25       0 |      42     192       8
   9      90       0       1 |       0      32       0 |      41     192       8
secs success failure  active | minimum current maximum | average slowest fastest
  10     121       0       2 |       0      40       0 |      40     214       6
  11     159       0       4 |       0      50       0 |      38     214       6
  12     208       0       5 |       0      64       0 |      37     214       5
  13     268       0       9 |       0      80       0 |      38     214       5
  14     346       0      11 |       0     100       0 |      38     214       5
  15     429       0      28 |       0     125       0 |      37     214       5
  16     539       0      43 |       0     160       0 |      35     214       4
  17     692       0      50 |       0     200       0 |      36     214       4
  18     885       0      57 |       0     250       0 |      36     214       4
  19    1124       1      66 |       0     320       0 |      43     214       4
secs success failure  active | minimum current maximum | average slowest fastest
  20    1358       1     152 |       0     400       0 |      64     215       4
  21    1626       1     283 |       0     400       0 |      89     317       4
  22    1900       2     407 |       0     500       0 |     104     317       4
  23    2147       4     656 |       0     625       0 |     118     366       4
Inital probe complete: High-water mark is 625 clients/second.
  24    2325       2    1101 |       0     625     625 |     129     366       4
# delayd 26822msec
  25    2385       1    1040 |       0     625     625 |     130     366       4
# delayd 60199msec
  26    2385      13    1027 |       0     625     625 |     130     366       4
# delayd 30944msec
  27    2385       8    1019 |       0     625     625 |     130     366       4
# delayd 62854msec
  28    2385      14    1005 |       0     625     625 |     130     366       4
# delayd 18337msec
  29    2385      20     985 |       0     625     625 |     130     366       4
# delayd 37984msec
secs success failure  active | minimum current maximum | average slowest fastest
  30    2385      51     934 |       0     625     625 |     130     366       4
# delayd 62824msec
  31    2385     172     762 |       0     625     625 |     130     366       4
  32    2385     122     640 |       0     625     625 |     130     366       4
# delayd 52298msec
  33    2385     354     286 |       0     625     625 |     130     366       4
  34    2385     286       0 |       0     625     625 |     130     366       4
  35    2385       0       0 |       0     625     625 |     130     366       4
Preparing for next test run.
  36       0       0       0 |       0     625     625 |       0       0       0
# delayd 62876msec
  37       0       0       0 |       0     625     625 |       0       0       0
# delayd 63686msec
  38       0       0       0 |       0     625     625 |       0       0       0
# delayd 51094msec
  39       0       0       0 |       0     625     625 |       0       0       0
# delayd 13639msec
secs success failure  active | minimum current maximum | average slowest fastest
  40       0       0       0 |       0     625     625 |       0       0       0
  41       0       0       0 |       0     625     625 |       0       0       0
# delayd 61603msec
  42       0       0       0 |       0     625     625 |       0       0       0
# delayd 8816msec
  43       0       0       0 |       0     625     625 |       0       0       0
# delayd 62800msec
  44       0       0       0 |       0     625     625 |       0       0       0
# delayd 34158msec
  45       0       0       0 |       0     625     625 |       0       0       0
# delayd 65722msec
  46       0       0       0 |       0     625     625 |       0       0       0
Beginning test run: 313 clients/second for 120 seconds.
# delayd 56275msec
  47       0       0       0 |       0     313     625 |       0       0       0
  48     263       0      50 |       0     313     625 |      88     223       9
  49     511       0     115 |       0     313     625 |      68     223       9
secs success failure  active | minimum current maximum | average slowest fastest
  50     781       0     158 |       0     313     625 |      74     223       9
  51    1056       0     196 |       0     313     625 |      79     246       9
  52    1362       0     201 |       0     313     625 |      84     246       4
  53    1657       0     221 |       0     313     625 |      84     246       4
  54    1944       0     247 |       0     313     625 |      84     246       4
  55    2231       0     273 |       0     313     625 |      86     246       4
  56    2502       0     315 |       0     313     625 |      85     246       4
  57    2765       0     365 |       0     313     625 |      84     246       4
  58    3030      35     378 |       0     313     625 |      85     246       4
Stopping run after 59 seconds; 35/3065 clients failed.
  59    3319      58     344 |       0     313     313 |      86     259       4
# delayd 7484msec
secs success failure  active | minimum current maximum | average slowest fastest
  60    3370      25     268 |       0     313     313 |      88     259       4
# delayd 23400msec
  61    3370      38     230 |       0     313     313 |      88     259       4
# delayd 48612msec
  62    3370      25     205 |       0     313     313 |      88     259       4
# delayd 62045msec
  63    3370      25     180 |       0     313     313 |      88     259       4
# delayd 23645msec
  64    3370      16     164 |       0     313     313 |      88     259       4
# delayd 43175msec
  65    3370      41     123 |       0     313     313 |      88     259       4
  66    3370      24      99 |       0     313     313 |      88     259       4
# delayd 29552msec
  67    3370      39      60 |       0     313     313 |      88     259       4
# delayd 54303msec
  68    3370      48      12 |       0     313     313 |      88     259       4
# delayd 62800msec
  69    3370      12       0 |       0     313     313 |      88     259       4
secs success failure  active | minimum current maximum | average slowest fastest
  70    3370       0       0 |       0     313     313 |      88     259       4
Preparing for next test run.
# delayd 487msec
  71       0       0       0 |       0     313     313 |       0       0       0
# delayd 14391msec
  72       0       0       0 |       0     313     313 |       0       0       0
# delayd 2492msec
  73       0       0       0 |       0     313     313 |       0       0       0
# delayd 5680msec
  74       0       0       0 |       0     313     313 |       0       0       0
  75       0       0       0 |       0     313     313 |       0       0       0
  76       0       0       0 |       0     313     313 |       0       0       0
# delayd 34011msec
  77       0       0       0 |       0     313     313 |       0       0       0
# delayd 56420msec
  78       0       0       0 |       0     313     313 |       0       0       0
# delayd 48053msec
  79       0       0       0 |       0     313     313 |       0       0       0
# delayd 45378msec
secs success failure  active | minimum current maximum | average slowest fastest
  80       0       0       0 |       0     313     313 |       0       0       0
  81       0       0       0 |       0     313     313 |       0       0       0
Beginning test run: 157 clients/second for 120 seconds.
# delayd 58747msec
  82       0       0       0 |       0     157     313 |       0       0       0
  83     148       0       9 |       0     157     313 |      45     203       4
  84     299       0      15 |       0     157     313 |      40     203       4
  85     447       0      24 |       0     157     313 |      40     203       4
  86     591       0      37 |       0     157     313 |      39     203       4
  87     738       0      46 |       0     157     313 |      39     205       4
# delayd 616msec
  88     878       0      64 |       0     157     313 |      41     207       4
  89    1027       0      72 |       0     157     313 |      40     207       4
secs success failure  active | minimum current maximum | average slowest fastest
  90    1169       0      87 |       0     157     313 |      40     207       4
  91    1323       0      90 |       0     157     313 |      40     207       4
  92    1480       0      89 |       0     157     313 |      40     207       4
  93    1644       7      76 |       0     157     313 |      41     207       4
Stopping run after 94 seconds; 7/1651 clients failed.
  94    1794       7      75 |       0     157     157 |      41     207       4
# delayd 37512msec
  95    1796       8      66 |       0     157     157 |      40     207       4
# delayd 25369msec
  96    1796      12      54 |       0     157     157 |      40     207       4
# delayd 58950msec
  97    1796      10      44 |       0     157     157 |      40     207       4
# delayd 7033msec
  98    1796      19      25 |       0     157     157 |      40     207       4
# delayd 26387msec
  99    1796       7      18 |       0     157     157 |      40     207       4
# delayd 28370msec
secs success failure  active | minimum current maximum | average slowest fastest
 100    1796       3      15 |       0     157     157 |      40     207       4
# delayd 62033msec
 101    1796       5      10 |       0     157     157 |      40     207       4
# delayd 35613msec
 102    1796       2       8 |       0     157     157 |      40     207       4
# delayd 56487msec
 103    1796       5       3 |       0     157     157 |      40     207       4
# delayd 7461msec
 104    1796       3       0 |       0     157     157 |      40     207       4
# delayd 50365msec
 105    1796       0       0 |       0     157     157 |      40     207       4
Preparing for next test run.
# delayd 40825msec
 106       0       0       0 |       0     157     157 |       0       0       0
# delayd 34067msec
 107       0       0       0 |       0     157     157 |       0       0       0
 108       0       0       0 |       0     157     157 |       0       0       0
# delayd 6756msec
 109       0       0       0 |       0     157     157 |       0       0       0
# delayd 59091msec
secs success failure  active | minimum current maximum | average slowest fastest
 110       0       0       0 |       0     157     157 |       0       0       0
# delayd 64018msec
 111       0       0       0 |       0     157     157 |       0       0       0
# delayd 55791msec
 112       0       0       0 |       0     157     157 |       0       0       0
# delayd 13766msec
 113       0       0       0 |       0     157     157 |       0       0       0
# delayd 60504msec
 114       0       0       0 |       0     157     157 |       0       0       0
# delayd 4988msec
 115       0       0       0 |       0     157     157 |       0       0       0
# delayd 41031msec
 116       0       0       0 |       0     157     157 |       0       0       0
Beginning test run: 79 clients/second for 120 seconds.
# delayd 43534msec
 117       0       0       0 |       0      79     157 |       0       0       0
# delayd 3812msec
 118      75       0       4 |       0      79     157 |      37     187       5
 119     147       0      11 |       0      79     157 |      35     188       4
secs success failure  active | minimum current maximum | average slowest fastest
 120     211       0      26 |       0      79     157 |      32     193       4
# delayd 5962msec
 121     287       0      29 |       0      79     157 |      32     193       4
# delayd 6154msec
 122     365       0      30 |       0      79     157 |      34     193       4
# delayd 1724msec
 123     447       0      27 |       0      79     157 |      35     193       4
# delayd 1662msec
 124     522       0      31 |       0      79     157 |      35     193       4
 125     602       0      30 |       0      79     157 |      35     193       4
 126     680       0      31 |       0      79     157 |      36     197       4
 127     757       0      33 |       0      79     157 |      37     208       4
# delayd 4088msec
 128     835       3      31 |       0      79     157 |      38     209       4
Stopping run after 129 seconds; 3/838 clients failed.
# delayd 1691msec
 129     912       7      26 |       0      79      79 |      37     209       4
# delayd 62438msec
secs success failure  active | minimum current maximum | average slowest fastest
 130     913       3      22 |       0      79      79 |      37     209       4
# delayd 53146msec
 131     913       4      18 |       0      79      79 |      37     209       4
# delayd 50526msec
 132     913       2      16 |       0      79      79 |      37     209       4
# delayd 57241msec
 133     913       4      12 |       0      79      79 |      37     209       4
# delayd 31087msec
 134     913       3       9 |       0      79      79 |      37     209       4
# delayd 30783msec
 135     913       1       8 |       0      79      79 |      37     209       4
# delayd 3779msec
 136     913       4       4 |       0      79      79 |      37     209       4
# delayd 54935msec
 137     913       2       2 |       0      79      79 |      37     209       4
# delayd 24484msec
 138     913       1       1 |       0      79      79 |      37     209       4
# delayd 61590msec
 139     913       1       0 |       0      79      79 |      37     209       4
# delayd 10247msec
secs success failure  active | minimum current maximum | average slowest fastest
 140     913       0       0 |       0      79      79 |      37     209       4
Preparing for next test run.
# delayd 54479msec
 141       0       0       0 |       0      79      79 |       0       0       0
# delayd 15280msec
 142       0       0       0 |       0      79      79 |       0       0       0
# delayd 63847msec
 143       0       0       0 |       0      79      79 |       0       0       0
# delayd 23245msec
 144       0       0       0 |       0      79      79 |       0       0       0
 145       0       0       0 |       0      79      79 |       0       0       0
# delayd 60161msec
 146       0       0       0 |       0      79      79 |       0       0       0
# delayd 6558msec
 147       0       0       0 |       0      79      79 |       0       0       0
# delayd 32501msec
 148       0       0       0 |       0      79      79 |       0       0       0
# delayd 27507msec
 149       0       0       0 |       0      79      79 |       0       0       0
# delayd 5228msec
secs success failure  active | minimum current maximum | average slowest fastest
 150       0       0       0 |       0      79      79 |       0       0       0
# delayd 43743msec
 151       0       0       0 |       0      79      79 |       0       0       0
Beginning test run: 40 clients/second for 120 seconds.
# delayd 28893msec
 152       0       0       0 |       0      40      79 |       0       0       0
 153      37       0       3 |       0      40      79 |      39     182       7
 154      73       0       7 |       0      40      79 |      36     182       6
 155     112       0       8 |       0      40      79 |      40     199       6
 156     152       0       8 |       0      40      79 |      41     199       6
 157     192       0       8 |       0      40      79 |      41     199       5
# delayd 874msec
 158     228       0      12 |       0      40      79 |      40     199       5
 159     267       0      13 |       0      40      79 |      40     199       5
secs success failure  active | minimum current maximum | average slowest fastest
 160     306       0      14 |       0      40      79 |      40     199       5
 161     346       0      14 |       0      40      79 |      39     199       5
 162     385       0      15 |       0      40      79 |      40     199       5
 163     423       1      16 |       0      40      79 |      40     199       5
Stopping run after 164 seconds; 1/424 clients failed.
 164     462       5      12 |       0      40      40 |      40     199       5
# delayd 34273msec
 165     463       1      10 |       0      40      40 |      40     199       5
# delayd 36170msec
 166     463       0      10 |       0      40      40 |      40     199       5
Preparing for next test run.
# delayd 54015msec
 167       0       0       0 |       0      40      40 |       0       0       0
 168       0       0       0 |       0      40      40 |       0       0       0
 169       0       0       0 |       0      40      40 |       0       0       0
# delayd 33528msec
secs success failure  active | minimum current maximum | average slowest fastest
 170       0       0       0 |       0      40      40 |       0       0       0
# delayd 19605msec
 171       0       0       0 |       0      40      40 |       0       0       0
# delayd 14901msec
 172       0       0       0 |       0      40      40 |       0       0       0
# delayd 49175msec
 173       0       0       0 |       0      40      40 |       0       0       0
# delayd 43864msec
 174       0       0       0 |       0      40      40 |       0       0       0
# delayd 64161msec
 175       0       0       0 |       0      40      40 |       0       0       0
# delayd 40697msec
 176       0       0       0 |       0      40      40 |       0       0       0
# delayd 54726msec
 177       0       0       0 |       0      40      40 |       0       0       0
Beginning test run: 20 clients/second for 120 seconds.
# delayd 22053msec
 178       0       0       0 |       0      20      40 |       0       0       0
 179      17       0       3 |       0      20      40 |      33     104       8
# delayd 12993msec
secs success failure  active | minimum current maximum | average slowest fastest
 180      37       0       3 |       0      20      40 |      33     155       7
 181      57       0       3 |       0      20      40 |      39     195       7
# delayd 52471msec
 182      78       0       2 |       0      20      40 |      40     195       7
 183      96       0       4 |       0      20      40 |      39     195       7
# delayd 61732msec
 184     116       0       4 |       0      20      40 |      40     195       7
# delayd 41567msec
 185     136       0       4 |       0      20      40 |      39     195       7
# delayd 534msec
 186     154       0       6 |       0      20      40 |      39     195       7
 187     173       0       7 |       0      20      40 |      38     195       7
 188     191       0       9 |       0      20      40 |      40     195       7
 189     210       0      10 |       0      20      40 |      40     195       7
# delayd 1800msec
secs success failure  active | minimum current maximum | average slowest fastest
 190     230       0      10 |       0      20      40 |      40     195       6
 191     249       1      10 |       0      20      40 |      40     195       6
Stopping run after 192 seconds; 1/250 clients failed.
 192     267       1      11 |       0      20      20 |      41     207       6
# delayd 19478msec
 193     268       1       9 |       0      20      20 |      41     207       6
 194     268       0       9 |       0      20      20 |      41     207       6
Preparing for next test run.
# delayd 51491msec
 195       0       0       0 |       0      20      20 |       0       0       0
 196       0       0       0 |       0      20      20 |       0       0       0
# delayd 6909msec
 197       0       0       0 |       0      20      20 |       0       0       0
# delayd 36811msec
 198       0       0       0 |       0      20      20 |       0       0       0
# delayd 3984msec
 199       0       0       0 |       0      20      20 |       0       0       0
# delayd 9455msec
secs success failure  active | minimum current maximum | average slowest fastest
 200       0       0       0 |       0      20      20 |       0       0       0
# delayd 62373msec
 201       0       0       0 |       0      20      20 |       0       0       0
# delayd 46711msec
 202       0       0       0 |       0      20      20 |       0       0       0
# delayd 35476msec
 203       0       0       0 |       0      20      20 |       0       0       0
# delayd 8799msec
 204       0       0       0 |       0      20      20 |       0       0       0
# delayd 51125msec
 205       0       0       0 |       0      20      20 |       0       0       0
Beginning test run: 10 clients/second for 120 seconds.
 206       0       0       0 |       0      10      20 |       0       0       0
 207      10       0       0 |       0      10      20 |      44     120       8
# delayd 25439msec
 208      19       0       1 |       0      10      20 |      40     140       8
# delayd 3232msec
 209      29       0       1 |       0      10      20 |      43     162       8
# delayd 63697msec
secs success failure  active | minimum current maximum | average slowest fastest
 210      39       0       1 |       0      10      20 |      49     207       8
# delayd 34345msec
 211      48       0       2 |       0      10      20 |      48     207       7
# delayd 28444msec
 212      58       0       2 |       0      10      20 |      46     207       7
 213      68       0       2 |       0      10      20 |      46     207       7
# delayd 53283msec
 214      77       0       3 |       0      10      20 |      45     207       7
 215      87       0       3 |       0      10      20 |      44     207       7
# delayd 3073msec
 216      97       0       3 |       0      10      20 |      44     207       7
 217     105       0       5 |       0      10      20 |      44     207       7
# delayd 58623msec
 218     115       0       5 |       0      10      20 |      46     207       7
 219     125       0       5 |       0      10      20 |      46     207       7
# delayd 63517msec
secs success failure  active | minimum current maximum | average slowest fastest
 220     135       1       4 |       0      10      20 |      46     207       7
Stopping run after 221 seconds; 1/136 clients failed.
# delayd 63879msec
 221     145       1       3 |       0      10      10 |      46     207       7
# delayd 13908msec
 222     145       0       3 |       0      10      10 |      46     207       7
Preparing for next test run.
# delayd 25712msec
 223       0       0       0 |       0      10      10 |       0       0       0
 224       0       0       0 |       0      10      10 |       0       0       0
# delayd 14982msec
 225       0       0       0 |       0      10      10 |       0       0       0
# delayd 27591msec
 226       0       0       0 |       0      10      10 |       0       0       0
# delayd 54731msec
 227       0       0       0 |       0      10      10 |       0       0       0
# delayd 55554msec
 228       0       0       0 |       0      10      10 |       0       0       0
# delayd 56229msec
 229       0       0       0 |       0      10      10 |       0       0       0
# delayd 40073msec
secs success failure  active | minimum current maximum | average slowest fastest
 230       0       0       0 |       0      10      10 |       0       0       0
 231       0       0       0 |       0      10      10 |       0       0       0
# delayd 64910msec
 232       0       0       0 |       0      10      10 |       0       0       0
# delayd 41784msec
 233       0       0       0 |       0      10      10 |       0       0       0
Beginning test run: 5 clients/second for 120 seconds.
# delayd 51052msec
 234       0       0       0 |       0       5      10 |       0       0       0
# delayd 45635msec
 235       5       0       0 |       0       5      10 |      34      59      21
# delayd 41632msec
 236      10       0       0 |       0       5      10 |      33      84       8
# delayd 3843msec
 237      15       0       0 |       0       5      10 |      38      90       8
# delayd 58978msec
 238      20       0       0 |       0       5      10 |      39      90       8
# delayd 23543msec
 239      25       0       0 |       0       5      10 |      39      90       8
# delayd 25251msec
secs success failure  active | minimum current maximum | average slowest fastest
 240      30       0       0 |       0       5      10 |      37      90       8
# delayd 45471msec
 241      35       0       0 |       0       5      10 |      38      90       8
# delayd 62203msec
 242      40       0       0 |       0       5      10 |      37      90       8
# delayd 36823msec
 243      45       0       0 |       0       5      10 |      38      90       8
# delayd 37030msec
 244      50       0       0 |       0       5      10 |      37      90       8
# delayd 17839msec
 245      55       0       0 |       0       5      10 |      37      90       8
 246      60       0       0 |       0       5      10 |      37     117       8
# delayd 39927msec
 247      65       0       0 |       0       5      10 |      38     117       8
# delayd 27811msec
 248      70       0       0 |       0       5      10 |      40     155       8
# delayd 10708msec
 249      75       0       0 |       0       5      10 |      42     155       8
# delayd 2693msec
secs success failure  active | minimum current maximum | average slowest fastest
 250      80       0       0 |       0       5      10 |      42     155       8
 251      84       0       1 |       0       5      10 |      41     155       8
# delayd 1751msec
 252      89       0       1 |       0       5      10 |      42     165       8
 253      94       0       1 |       0       5      10 |      41     165       8
# delayd 41152msec
 254      99       0       1 |       0       5      10 |      42     165       8
 255     104       0       1 |       0       5      10 |      42     165       8
# delayd 58658msec
 256     109       0       1 |       0       5      10 |      43     165       8
 257     114       0       1 |       0       5      10 |      43     165       8
 258     119       0       1 |       0       5      10 |      44     189       8
# delayd 2421msec
 259     124       0       1 |       0       5      10 |      44     189       8
# delayd 21519msec
secs success failure  active | minimum current maximum | average slowest fastest
 260     129       0       1 |       0       5      10 |      44     189       8
# delayd 40178msec
 261     134       0       1 |       0       5      10 |      43     189       8
# delayd 29047msec
 262     139       1       0 |       0       5      10 |      42     189       8
Stopping run after 263 seconds; 1/140 clients failed.
# delayd 41354msec
 263     144       0       0 |       0       5       5 |      42     189       8
Preparing for next test run.
# delayd 60213msec
 264       0       0       0 |       0       5       5 |       0       0       0
# delayd 4648msec
 265       0       0       0 |       0       5       5 |       0       0       0
# delayd 63642msec
 266       0       0       0 |       0       5       5 |       0       0       0
# delayd 65265msec
 267       0       0       0 |       0       5       5 |       0       0       0
# delayd 36406msec
 268       0       0       0 |       0       5       5 |       0       0       0
# delayd 52885msec
 269       0       0       0 |       0       5       5 |       0       0       0
# delayd 17283msec
secs success failure  active | minimum current maximum | average slowest fastest
 270       0       0       0 |       0       5       5 |       0       0       0
# delayd 4964msec
 271       0       0       0 |       0       5       5 |       0       0       0
# delayd 54686msec
 272       0       0       0 |       0       5       5 |       0       0       0
# delayd 4400msec
 273       0       0       0 |       0       5       5 |       0       0       0
# delayd 55480msec
 274       0       0       0 |       0       5       5 |       0       0       0
Beginning test run: 2 clients/second for 120 seconds.
# delayd 40369msec
 275       0       0       0 |       0       2       5 |       0       0       0
 276       2       0       0 |       0       2       5 |      87     147      26
 277       4       0       0 |       0       2       5 |      56     147      23
# delayd 25083msec
 278       6       0       0 |       0       2       5 |      50     147      23
# delayd 13403msec
 279       8       0       0 |       0       2       5 |      44     147      20
# delayd 59120msec
secs success failure  active | minimum current maximum | average slowest fastest
 280      10       0       0 |       0       2       5 |      40     147      20
# delayd 25348msec
 281      12       0       0 |       0       2       5 |      39     147      20
# delayd 30003msec
 282      14       0       0 |       0       2       5 |      38     147      20
 283      16       0       0 |       0       2       5 |      37     147      20
 284      18       0       0 |       0       2       5 |      37     147      16
# delayd 41185msec
 285      20       0       0 |       0       2       5 |      37     147      16
# delayd 61293msec
 286      22       0       0 |       0       2       5 |      37     147      16
# delayd 59417msec
 287      24       0       0 |       0       2       5 |      36     147      16
# delayd 19502msec
 288      26       0       0 |       0       2       5 |      35     147      16
 289      28       0       0 |       0       2       5 |      35     147      16
# delayd 30463msec
secs success failure  active | minimum current maximum | average slowest fastest
 290      30       0       0 |       0       2       5 |      34     147      13
# delayd 15203msec
 291      32       0       0 |       0       2       5 |      33     147      13
# delayd 61138msec
 292      34       0       0 |       0       2       5 |      34     147      13
# delayd 45148msec
 293      36       0       0 |       0       2       5 |      34     147      13
# delayd 15523msec
 294      38       0       0 |       0       2       5 |      33     147      13
# delayd 47211msec
 295      40       0       0 |       0       2       5 |      33     147      13
# delayd 11559msec
 296      42       0       0 |       0       2       5 |      33     147      13
# delayd 3326msec
 297      44       0       0 |       0       2       5 |      33     147      13
# delayd 52729msec
 298      46       0       0 |       0       2       5 |      33     147      13
# delayd 43135msec
 299      48       0       0 |       0       2       5 |      32     147      13
# delayd 57150msec
secs success failure  active | minimum current maximum | average slowest fastest
 300      50       0       0 |       0       2       5 |      32     147      13
# delayd 31293msec
 301      51       0       1 |       0       2       5 |      33     147      13
# delayd 40314msec
 302      53       0       1 |       0       2       5 |      32     147      13
# delayd 2375msec
 303      55       0       1 |       0       2       5 |      32     147      13
# delayd 35562msec
 304      57       0       1 |       0       2       5 |      34     147      13
# delayd 60955msec
 305      59       0       1 |       0       2       5 |      34     147      13
# delayd 63594msec
 306      61       0       1 |       0       2       5 |      33     147      13
# delayd 52072msec
 307      63       0       1 |       0       2       5 |      33     147      13
# delayd 59146msec
 308      64       0       2 |       0       2       5 |      33     147      13
# delayd 60562msec
 309      66       0       2 |       0       2       5 |      33     147      13
# delayd 19976msec
secs success failure  active | minimum current maximum | average slowest fastest
 310      68       0       2 |       0       2       5 |      32     147      13
# delayd 39240msec
 311      70       1       1 |       0       2       5 |      32     147      13
Stopping run after 312 seconds; 1/71 clients failed.
# delayd 39509msec
 312      72       0       1 |       0       2       2 |      32     147      13
Preparing for next test run.
# delayd 3921msec
 313       0       0       0 |       0       2       2 |       0       0       0
Finished and report: 2 transactions per second.
